<svg width="39" height="39" viewBox="0 0 39 39" fill="none" xmlns="http://www.w3.org/2000/svg">
<g id="icon/editor/notes_24px">
<path id="icon/editor/notes_24px_2" fill-rule="evenodd" clip-rule="evenodd" d="M4.875 9.75H34.125V13L4.875 13.0163V9.75ZM34.125 17.8913L4.875 17.875V21.125H34.125V17.8913ZM4.875 26H24.375V29.25H4.875V26Z" fill="black" fill-opacity="0.54"/>
</g>
</svg>
